<svg width="64" height="64" viewBox="0 0 64 64" fill="none" xmlns="http://www.w3.org/2000/svg">
<mask id="mask0" mask-type="alpha" maskUnits="userSpaceOnUse" x="0" y="0" width="64" height="64">
<rect width="64" height="64" fill="#C4C4C4"/>
</mask>
<g mask="url(#mask0)">
<path d="M50.4025 2H14.0491C11.2617 2.00342 9.00345 4.23974 9 7V57C9.00345 59.7602 11.2617 61.9965 14.0491 62H50.4025C53.1898 61.9965 55.4481 59.7602 55.4516 57V7C55.4481 4.23974 53.1898 2.00342 50.4025 2ZM47.373 4V13L44.9496 11.2002C44.5906 10.9331 44.0966 10.9331 43.7376 11.2002L41.3141 13V4H47.373ZM53.4319 57C53.4319 58.6567 52.0755 60 50.4025 60H14.0491C12.3761 60 11.0196 58.6567 11.0196 57V7C11.0196 5.34326 12.3761 4 14.0491 4H39.2945V15C39.2945 15.3789 39.5105 15.7251 39.8527 15.8945C40.1949 16.064 40.6041 16.0273 40.9103 15.7998L44.3436 13.25L47.7769 15.7998C48.0831 16.0273 48.4923 16.064 48.8345 15.8945C49.1767 15.7251 49.3927 15.3789 49.3927 15V4H50.4025C52.0755 4 53.4319 5.34326 53.4319 7V57Z" fill="#27AE60"/>
<path d="M42.3238 37.9998C40.0931 37.9998 38.2845 39.7908 38.2845 41.9998C38.2845 44.2088 40.0931 45.9998 42.3238 45.9998C44.5545 45.9998 46.3631 44.2088 46.3631 41.9998C46.3631 39.7908 44.5545 37.9998 42.3238 37.9998ZM42.3238 43.9998C41.2085 43.9998 40.3042 43.1043 40.3042 41.9998C40.3042 40.8953 41.2085 39.9998 42.3238 39.9998C43.4391 39.9998 44.3434 40.8953 44.3434 41.9998C44.3434 43.1043 43.4391 43.9998 42.3238 43.9998Z" fill="#27AE60"/>
<path d="M49.754 39.829C49.5208 39.6493 49.3132 39.4398 49.1362 39.2059C49.0839 38.8983 49.0775 38.5843 49.117 38.2748C49.2925 37.4208 49.08 36.5331 48.5361 35.848C47.8448 35.3075 46.9479 35.097 46.0855 35.2728C45.7729 35.3119 45.4559 35.3055 45.1453 35.2538C44.9091 35.0785 44.6975 34.8729 44.5161 34.642C44.0235 33.8934 43.2198 33.4017 42.3239 33.2997C41.428 33.4017 40.6243 33.8934 40.1317 34.642C39.9502 34.8729 39.7387 35.0785 39.5025 35.2538C39.1919 35.3055 38.8748 35.3119 38.5622 35.2728C37.6998 35.098 36.8034 35.3085 36.1116 35.848C35.5678 36.5331 35.3553 37.4208 35.5308 38.2748C35.5702 38.5843 35.5638 38.8983 35.5116 39.2059C35.3345 39.4398 35.127 39.6493 34.8937 39.829C34.1379 40.3168 33.6413 41.1127 33.5383 41.9999C33.6413 42.8871 34.1379 43.683 34.8937 44.1708C35.127 44.3505 35.3345 44.5599 35.5116 44.7938C35.5638 45.1014 35.5702 45.4154 35.5308 45.725C35.3553 46.579 35.5678 47.4667 36.1116 48.1517C36.4287 48.4564 36.8365 48.6517 37.2748 48.7079V56.9999C37.2748 57.3788 37.4908 57.725 37.833 57.8944C38.1752 58.0638 38.5844 58.0272 38.8906 57.7997L42.3239 55.2499L45.7572 57.7997C46.0634 58.0272 46.4726 58.0638 46.8148 57.8944C47.157 57.725 47.373 57.3788 47.373 56.9999V48.7079C47.8113 48.6517 48.2191 48.4564 48.5361 48.1517C49.08 47.4667 49.2925 46.579 49.117 45.725C49.0775 45.4154 49.0839 45.1014 49.1362 44.7938C49.3132 44.5599 49.5208 44.3505 49.754 44.1708C50.5099 43.683 51.0064 42.8871 51.1095 41.9999C51.0064 41.1127 50.5099 40.3168 49.754 39.829ZM42.9299 53.2001C42.5709 52.933 42.0769 52.933 41.7179 53.2001L39.2944 54.9999V48.7108C39.3649 48.7128 39.435 48.7245 39.5025 48.746C39.7387 48.9213 39.9502 49.1268 40.1317 49.3578C40.6243 50.1063 41.428 50.598 42.3239 50.7001C43.2198 50.598 44.0235 50.1063 44.5161 49.3578C44.6975 49.1268 44.9091 48.9213 45.1453 48.746C45.2128 48.7245 45.2828 48.7128 45.3533 48.7108V54.9999L42.9299 53.2001ZM48.4252 42.6659C47.941 43.0267 47.5465 43.4925 47.2719 44.0277C47.0771 44.6136 47.0194 45.2357 47.1033 45.847C47.1215 46.141 47.1516 46.6337 47.1427 46.7118C46.8345 46.7635 46.5204 46.7699 46.2108 46.7308C45.5935 46.6478 44.9653 46.7049 44.3736 46.8978C43.8332 47.1703 43.3628 47.5614 42.9984 48.0419C42.8046 48.2826 42.5872 48.5038 42.35 48.703C42.0842 48.5199 41.8491 48.2967 41.6533 48.0419C41.2884 47.5619 40.817 47.1713 40.2761 46.8998C39.9029 46.7601 39.5055 46.6942 39.1066 46.7059C38.8783 46.7059 38.6534 46.7201 38.4389 46.7328C38.1421 46.7508 37.6436 46.785 37.5657 46.7718C37.5139 46.4667 37.5075 46.1556 37.5465 45.849C37.6303 45.2377 37.5726 44.6156 37.3778 44.0297C37.1027 43.4945 36.7078 43.0287 36.2226 42.6678C35.9795 42.4759 35.7561 42.2606 35.555 42.0258C35.7399 41.7626 35.9652 41.5297 36.2226 41.3358C36.7073 40.9745 37.1017 40.5077 37.3759 39.972C37.5706 39.3861 37.6283 38.764 37.5445 38.1527C37.5263 37.8588 37.4962 37.3661 37.5051 37.288C37.8132 37.2357 38.1273 37.2294 38.437 37.2689C39.0543 37.3519 39.6825 37.2948 40.2742 37.1019C40.8146 36.8295 41.285 36.4384 41.6494 35.9579C41.8431 35.7172 42.0606 35.496 42.2977 35.2968C42.5635 35.4799 42.7987 35.703 42.9945 35.9579C43.3593 36.4379 43.8307 36.8285 44.3716 37.1C44.9633 37.2924 45.5915 37.3495 46.2088 37.267C46.5056 37.2489 47.0022 37.2137 47.0821 37.2279C47.1338 37.5331 47.1402 37.8441 47.1013 38.1508C47.0175 38.7621 47.0751 39.3842 47.2699 39.9701C47.545 40.5052 47.94 40.9711 48.4252 41.3319C48.6737 41.5238 48.8951 41.7479 49.0834 41.9979C48.8951 42.2484 48.6737 42.473 48.4252 42.6659Z" fill="#27AE60"/>
<path d="M17.0784 11.0002H21.1176V13.0002H17.0784V11.0002Z" fill="#27AE60"/>
<path d="M23.1373 11.0002H33.2355V13.0002H23.1373V11.0002Z" fill="#27AE60"/>
<path d="M17.0784 15.0001H33.2354V17.0001H17.0784V15.0001Z" fill="#27AE60"/>
<path d="M17.0784 22.9998H35.2551V24.9998H17.0784V22.9998Z" fill="#27AE60"/>
<path d="M37.2748 22.9998H41.314V24.9998H37.2748V22.9998Z" fill="#27AE60"/>
<path d="M43.3336 22.9998H47.3729V24.9998H43.3336V22.9998Z" fill="#27AE60"/>
<path d="M17.0784 27.0001H47.3729V29.0001H17.0784V27.0001Z" fill="#27AE60"/>
<path d="M17.0784 30.9999H29.1962V32.9999H17.0784V30.9999Z" fill="#27AE60"/>
<path d="M17.0784 38.9996H27.1765V40.9996H17.0784V38.9996Z" fill="#27AE60"/>
<path d="M17.0784 43.0001H27.1765V45H17.0784V43.0001Z" fill="#27AE60"/>
</g>
</svg>
