<svg width="64" height="64" viewBox="0 0 64 64" fill="none" xmlns="http://www.w3.org/2000/svg">
<path d="M62.3951 21.3416L42.6571 1.6035C40.5207 -0.532873 37.0445 -0.532873 34.9081 1.6035L4.10488 32.4069C3.03675 33.4751 2.50262 34.8783 2.50262 36.2814C2.50262 37.6845 3.03675 39.0876 4.10488 40.1559L9.05725 45.1083L3.61937 50.5461C3.37525 50.7903 3.25325 51.1101 3.25325 51.43C3.25325 51.7499 3.37525 52.0698 3.61937 52.3139C4.1075 52.802 4.899 52.8021 5.38713 52.3139L10.825 46.876L13.0899 49.141L0.366125 61.8649C0.122 62.1089 0 62.4289 0 62.7488C0 63.0686 0.122 63.3886 0.366125 63.6326C0.85425 64.1208 1.64575 64.1208 2.134 63.6326L14.8579 50.9088L23.8429 59.8939C25.9794 62.0301 29.4555 62.0301 31.5919 59.8939L62.3951 29.0905C63.43 28.0558 64 26.6796 64 25.2161C64 23.7525 63.43 22.3765 62.3951 21.3416ZM26.8091 58.8541C26.3706 58.7145 25.9578 58.4734 25.6105 58.1261L5.87262 38.3881C5.09375 37.6091 4.83975 36.5033 5.10537 35.5086H26.8091V58.8541ZM22.2908 33.0086L25.9974 29.302C26.4855 28.8139 26.4856 28.0224 25.9974 27.5343C25.5091 27.0461 24.7178 27.046 24.2296 27.5343L18.7551 33.0086H15.1132L26.414 21.7079C26.902 21.2198 26.9021 20.4283 26.414 19.94C25.9259 19.4519 25.1344 19.4519 24.6461 19.94L11.5778 33.0086H7.03875L35.5099 4.53738V30.0293C35.5099 31.6721 34.1734 33.0086 32.5305 33.0086H22.2908ZM60.6275 27.3229L29.8241 58.1261C29.6653 58.285 29.4918 58.4201 29.3092 58.5356V35.5086H32.5306C35.5519 35.5086 38.01 33.0506 38.01 30.0293V26.8079H52.338L45.1046 34.0414C44.8606 34.2854 44.7385 34.6054 44.7385 34.9253C44.7385 35.2453 44.8605 35.565 45.1046 35.8091C45.5928 36.2973 46.3843 36.2973 46.8725 35.8091L55.8727 26.8089C55.873 26.8086 55.8732 26.8083 55.8735 26.808H61.0395C60.9226 26.9921 60.7855 27.165 60.6275 27.3229ZM38.0099 24.3079V2.60413C39.0046 2.3385 40.1105 2.5925 40.8894 3.37138L60.6274 23.1094C60.9689 23.4508 61.2165 23.8606 61.359 24.3079H38.0099Z" fill="#27AE60"/>
<path d="M29.4738 16.8813C29.2413 16.6475 28.9188 16.515 28.59 16.515C28.26 16.515 27.9388 16.6475 27.7063 16.8813C27.4738 17.1138 27.34 17.435 27.34 17.765C27.34 18.0938 27.4738 18.4163 27.7063 18.6488C27.9388 18.8813 28.26 19.015 28.59 19.015C28.9188 19.015 29.2413 18.8813 29.4738 18.6488C29.7063 18.4163 29.84 18.0938 29.84 17.765C29.84 17.435 29.7063 17.1138 29.4738 16.8813Z" fill="#27AE60"/>
<path d="M2.13877 53.7937C1.90627 53.5612 1.58377 53.4275 1.25502 53.4275C0.92627 53.4275 0.60377 53.5612 0.37127 53.7937C0.13877 54.0262 0.00502014 54.3487 0.00502014 54.6775C0.00502014 55.0062 0.13877 55.3287 0.37127 55.5612C0.60377 55.7937 0.92627 55.9275 1.25502 55.9275C1.58502 55.9275 1.90627 55.7937 2.13877 55.5612C2.37252 55.3287 2.50502 55.0062 2.50502 54.6775C2.50502 54.3487 2.37252 54.0262 2.13877 53.7937Z" fill="#27AE60"/>
<path d="M15.8772 56.1871C15.389 55.699 14.5975 55.699 14.1093 56.1871L8.43235 61.8641C8.18835 62.1081 8.06622 62.4281 8.06622 62.748C8.06622 63.0679 8.18822 63.3879 8.43235 63.632C8.9206 64.1202 9.7121 64.1202 10.2002 63.632L15.8772 57.955C16.3652 57.4668 16.3652 56.6753 15.8772 56.1871Z" fill="#27AE60"/>
</svg>
