<svg width="64" height="64" viewBox="0 0 64 64" fill="none" xmlns="http://www.w3.org/2000/svg">
<path d="M7.63363 21.2412C7.40125 21.0086 7.07875 20.875 6.75 20.875C6.42125 20.875 6.09888 21.0087 5.86625 21.2412C5.63363 21.4737 5.5 21.7962 5.5 22.125C5.5 22.4538 5.63363 22.7763 5.86625 23.0086C6.09875 23.2413 6.42125 23.375 6.75 23.375C7.07875 23.375 7.40125 23.2413 7.63363 23.0086C7.86625 22.7763 8 22.4538 8 22.125C8 21.7962 7.86625 21.4737 7.63363 21.2412Z" fill="#27AE60"/>
<path d="M54.75 0H29.4584C28.7681 0 28.2084 0.55975 28.2084 1.25C28.2084 1.94025 28.7681 2.5 29.4584 2.5H54.75C55.4393 2.5 56 3.06075 56 3.75V60.25C56 60.9393 55.4393 61.5 54.75 61.5H9.25C8.56075 61.5 8 60.9393 8 60.25V26.7916C8 26.1014 7.44025 25.5416 6.75 25.5416C6.05975 25.5416 5.5 26.1014 5.5 26.7916V60.25C5.5 62.3177 7.18225 64 9.25 64H54.75C56.8177 64 58.5 62.3177 58.5 60.25V3.75C58.5 1.68225 56.8177 0 54.75 0Z" fill="#27AE60"/>
<path d="M32 5C31.1495 5 30.2947 5.065 29.4595 5.193C28.7771 5.29775 28.3087 5.93563 28.4134 6.618C28.518 7.30037 29.1562 7.76813 29.8384 7.66412C30.5487 7.55512 31.276 7.5 32 7.5C39.7886 7.5 46.1251 13.8365 46.1251 21.6251C46.1251 25.0839 44.8749 28.2555 42.8034 30.7139C41.8867 29.1376 40.6347 27.778 39.1151 26.7234C38.2282 26.1079 37.2754 25.6166 36.2779 25.253C37.4164 24.1401 38.125 22.5893 38.125 20.8752V19.6565C38.125 16.279 35.3774 13.5314 32 13.5314C28.6226 13.5314 25.875 16.279 25.875 19.6565V20.8752C25.875 22.5893 26.5835 24.1401 27.7221 25.253C26.7247 25.6166 25.7719 26.1079 24.8849 26.7234C23.358 27.7831 22.101 29.1504 21.1832 30.7361C19.6049 28.8605 18.5016 26.5535 18.07 23.9799C17.9559 23.2992 17.3107 22.84 16.6305 22.9539C15.9496 23.068 15.4902 23.7125 15.6044 24.3934C16.2471 28.2259 18.2367 31.7339 21.2069 34.271C24.2107 36.8371 28.0439 38.2504 31.9999 38.2504C41.167 38.2504 48.625 30.7924 48.625 21.6252C48.625 12.4581 41.1671 5 32 5ZM28.375 19.6564C28.375 17.6575 30.0012 16.0312 32 16.0312C33.9987 16.0312 35.625 17.6575 35.625 19.6564V20.8751C35.625 22.8739 33.9987 24.5001 32 24.5001C30.0012 24.5001 28.375 22.8739 28.375 20.8751V19.6564ZM32 35.7503C28.6157 35.7503 25.487 34.5685 23.0382 32.565C24.7167 29.1585 28.1481 27.0001 32 27.0001C35.8439 27.0001 39.2687 29.1496 40.951 32.5438C38.5126 34.5464 35.3942 35.7503 32 35.7503Z" fill="#27AE60"/>
<path d="M43.5446 49.7502H25.7946C25.1044 49.7502 24.5446 50.31 24.5446 51.0002C24.5446 51.6905 25.1044 52.2502 25.7946 52.2502H43.5446C44.235 52.2502 44.7946 51.6905 44.7946 51.0002C44.7946 50.31 44.2349 49.7502 43.5446 49.7502Z" fill="#27AE60"/>
<path d="M21.3388 43.1162C21.1063 42.8836 20.7838 42.75 20.455 42.75C20.1263 42.75 19.8038 42.8837 19.5713 43.1162C19.3388 43.3487 19.205 43.6712 19.205 44C19.205 44.3299 19.3389 44.6513 19.5713 44.8836C19.8038 45.1163 20.1263 45.25 20.455 45.25C20.7838 45.25 21.1063 45.1163 21.3388 44.8836C21.5725 44.6513 21.705 44.3288 21.705 44C21.705 43.6712 21.5725 43.3487 21.3388 43.1162Z" fill="#27AE60"/>
<path d="M21.3388 50.1162C21.1063 49.8836 20.785 49.75 20.455 49.75C20.1263 49.75 19.8038 49.8837 19.5713 50.1162C19.3388 50.3487 19.205 50.6712 19.205 51C19.205 51.3299 19.3389 51.6513 19.5713 51.8836C19.8038 52.1163 20.1263 52.25 20.455 52.25C20.7838 52.25 21.1063 52.1163 21.3388 51.8836C21.5725 51.6513 21.705 51.33 21.705 51C21.705 50.6712 21.5725 50.3487 21.3388 50.1162Z" fill="#27AE60"/>
<path d="M43.5446 42.7502H25.7946C25.1044 42.7502 24.5446 43.31 24.5446 44.0002C24.5446 44.6905 25.1044 45.2502 25.7946 45.2502H43.5446C44.235 45.2502 44.7946 44.6905 44.7946 44.0002C44.7946 43.31 44.2349 42.7502 43.5446 42.7502Z" fill="#27AE60"/>
<path d="M20.2033 7.20365C19.7149 6.71565 18.9236 6.71565 18.4354 7.20365L14.3646 11.2744L12.9735 9.88327C12.4851 9.39527 11.6939 9.39527 11.2056 9.88327C10.7175 10.3715 10.7175 11.163 11.2056 11.6511L13.4806 13.9261C13.7248 14.1701 14.0445 14.2923 14.3645 14.2923C14.6845 14.2923 15.0043 14.1701 15.2485 13.9263L20.2033 8.97152C20.6914 8.48327 20.6914 7.69177 20.2033 7.20365Z" fill="#27AE60"/>
<path d="M15.75 0C10.0981 0 5.5 4.59812 5.5 10.25C5.5 15.9019 10.0981 20.5 15.75 20.5C21.4019 20.5 26 15.9019 26 10.25C26 4.59812 21.4019 0 15.75 0ZM15.75 18C11.4766 18 8 14.5234 8 10.25C8 5.97662 11.4766 2.5 15.75 2.5C20.0234 2.5 23.5 5.97662 23.5 10.25C23.5 14.5234 20.0234 18 15.75 18Z" fill="#27AE60"/>
</svg>
