<svg width="64" height="64" viewBox="0 0 64 64" fill="none" xmlns="http://www.w3.org/2000/svg">
<path d="M39.4663 39.4668H29.8663V41.6001H39.4663V39.4668Z" fill="#27AE60"/>
<path d="M43.7334 39.4668H41.6001V41.6001H43.7334V39.4668Z" fill="#27AE60"/>
<path d="M34.1333 52.2664H29.8666V54.3997H34.1333V52.2664Z" fill="#27AE60"/>
<path d="M43.7334 52.2664H36.2667V54.3997H43.7334V52.2664Z" fill="#27AE60"/>
<path d="M43.7334 43.7336H29.8667V45.867H43.7334V43.7336Z" fill="#27AE60"/>
<path d="M43.7334 48H29.8667V50.1333H43.7334V48Z" fill="#27AE60"/>
<path d="M25.5996 48H22.3996V50.1333H25.5996V48Z" fill="#27AE60"/>
<path d="M25.5996 33.0671H23.4663V35.2005H25.5996V33.0671Z" fill="#27AE60"/>
<path d="M21.333 33.0671H12.7997V35.2005H21.333V33.0671Z" fill="#27AE60"/>
<path d="M33.9807 9.86469L31.5377 9.36612L31.111 11.4568L33.554 11.9554L33.9807 9.86469Z" fill="#27AE60"/>
<path d="M43.9404 11.8956L36.0131 10.2778L35.5864 12.3684L43.5137 13.9862L43.9404 11.8956Z" fill="#27AE60"/>
<path d="M3.65733 31.7448L4.876 33.4957C4.02945 34.0854 3.33796 34.8709 2.86041 35.7854C2.38287 36.7 2.13343 37.7163 2.13333 38.748V61.8667H10.08C11.1217 60.1368 11.6814 58.1597 11.7009 56.1406C11.7205 54.1214 11.1993 52.1338 10.1913 50.3841L9.74093 49.5959C9.63086 49.4032 9.58358 49.1811 9.60569 48.9604C9.6278 48.7396 9.71818 48.5312 9.86426 48.3643L15.4865 41.9389C15.8074 41.5705 15.9768 41.0941 15.9605 40.6058C15.9443 40.1174 15.7436 39.6534 15.3989 39.3071C15.2112 39.1193 14.9866 38.9724 14.7394 38.8755C14.4922 38.7786 14.2276 38.7338 13.9623 38.744C13.6969 38.7542 13.4365 38.8191 13.1975 38.9346C12.9584 39.0502 12.7458 39.2139 12.5729 39.4155L8.27693 44.4276C8.13512 44.5932 7.94596 44.7114 7.73492 44.7663C7.52389 44.8211 7.30112 44.8099 7.09661 44.7343C6.89211 44.6587 6.7157 44.5222 6.59115 44.3432C6.4666 44.1642 6.39988 43.9514 6.4 43.7333V1.06667C6.4 0.783769 6.51238 0.512458 6.71241 0.312419C6.91245 0.112381 7.18377 0 7.46666 0H56.5333C56.8162 0 57.0875 0.112381 57.2876 0.312419C57.4876 0.512458 57.6 0.783769 57.6 1.06667V43.7333C57.6 43.9513 57.5333 44.164 57.4087 44.3429C57.2842 44.5218 57.1079 44.6582 56.9035 44.7338C56.699 44.8094 56.4764 44.8206 56.2654 44.7659C56.0544 44.7111 55.8653 44.5931 55.7235 44.4276L51.4275 39.4156C51.2547 39.2139 51.042 39.0501 50.8029 38.9344C50.5637 38.8188 50.3033 38.7538 50.0378 38.7437C49.7724 38.7335 49.5078 38.7782 49.2605 38.8752C49.0132 38.9722 48.7886 39.1192 48.6008 39.3071C48.2561 39.6534 48.0555 40.1174 48.0392 40.6058C48.023 41.0941 48.1923 41.5705 48.5132 41.9389L54.1355 48.3643C54.2815 48.5312 54.3719 48.7396 54.394 48.9604C54.4161 49.1811 54.3689 49.4032 54.2588 49.5959L53.8084 50.3841C52.8005 52.1339 52.2793 54.1215 52.2989 56.1406C52.3186 58.1598 52.8783 60.1369 53.92 61.8667H61.8667V38.748C61.8666 37.7163 61.6171 36.7 61.1396 35.7854C60.662 34.8709 59.9706 34.0854 59.124 33.4957L60.3427 31.7448C61.4715 32.531 62.3935 33.5784 63.0303 34.7978C63.6671 36.0172 63.9998 37.3724 64 38.748V62.9333C64 63.2162 63.8876 63.4875 63.6876 63.6876C63.4875 63.8876 63.2162 64 62.9333 64H53.3333C53.1577 64 52.9849 63.9566 52.8301 63.8738C52.6752 63.791 52.5433 63.6712 52.4459 63.5251C51.6674 62.3594 51.0736 61.0804 50.6857 59.7333H16V57.6H46.9333V43.3723L46.9083 43.3437C46.2589 42.5976 45.9033 41.6406 45.9079 40.6515C45.9125 39.6623 46.277 38.7087 46.9333 37.9687V36.0436L8.53333 26.9488V40.8499L10.9528 38.0267C11.3169 37.6019 11.7648 37.2569 12.2685 37.0134C12.7722 36.7699 13.3208 36.6331 13.8799 36.6116C14.439 36.5901 14.9965 36.6844 15.5174 36.8886C16.0383 37.0928 16.5113 37.4024 16.9069 37.798C17.373 38.2638 17.7177 38.8367 17.9108 39.4667H25.6V41.6H17.9851C17.8352 42.2459 17.5284 42.8448 17.0917 43.3437L16.7507 43.7333H25.6V45.8667H14.9333V45.8104L13.0173 48H20.2667V50.1333H12.4692C12.8035 50.82 13.0793 51.5337 13.2939 52.2667H25.6V54.4H13.7343C14.1265 57.6048 13.3527 60.8437 11.5541 63.5251C11.4567 63.6712 11.3248 63.791 11.1699 63.8738C11.0151 63.9566 10.8423 64 10.6667 64H1.06666C0.783764 64 0.512455 63.8876 0.312416 63.6876C0.112377 63.4875 0 63.2162 0 62.9333V38.748C0.000205994 37.3724 0.332874 36.0172 0.969669 34.7978C1.60647 33.5784 2.52853 32.531 3.65733 31.7448ZM18.1333 14.9333H24.5333C24.8162 14.9333 25.0875 15.0457 25.2876 15.2458C25.4876 15.4458 25.6 15.7171 25.6 16V24.5333H27.7333V20.2667C27.7333 19.9838 27.8457 19.7125 28.0457 19.5124C28.2458 19.3124 28.5171 19.2 28.8 19.2H30.9333V17.0667H33.0667V19.2H35.2C35.4829 19.2 35.7542 19.3124 35.9542 19.5124C36.1543 19.7125 36.2667 19.9838 36.2667 20.2667V23.6297L40.5333 24.3408V20.2667C40.5333 20.0977 40.5735 19.9311 40.6505 19.7806C40.7276 19.6302 40.8392 19.5002 40.9763 19.4014C41.1135 19.3026 41.2721 19.2377 41.4392 19.2123C41.6063 19.1868 41.777 19.2013 41.9373 19.2548L46.9333 20.92V17.932L8.53333 9.84787V14.1645L14.204 16.0548C14.4164 16.1256 14.6011 16.2614 14.732 16.443C14.8629 16.6246 14.9333 16.8428 14.9333 17.0667V20.2667H17.0667V16C17.0667 15.7171 17.179 15.4458 17.3791 15.2458C17.5791 15.0457 17.8504 14.9333 18.1333 14.9333ZM8.53333 7.66787L46.9333 15.752V11.7333H38.4C38.1171 11.7333 37.8458 11.621 37.6458 11.4209C37.4457 11.2209 37.3333 10.9496 37.3333 10.6667V2.13333H8.53333V7.66787ZM45.4248 9.6L39.4667 3.64173V9.6H45.4248ZM55.4667 2.13333H53.3333V38.3609L55.4667 40.8499V2.13333ZM50.12 36.6121C50.487 36.6267 50.8504 36.6912 51.2 36.8037V2.13333H40.9752L48.7543 9.9124C48.8533 10.0115 48.9319 10.129 48.9855 10.2585C49.0391 10.3879 49.0667 10.5266 49.0667 10.6667V36.7109C49.4119 36.632 49.7661 36.5988 50.12 36.6121ZM49.0667 57.6H50.2573C49.9216 54.731 50.5174 51.8301 51.9568 49.3257L52.0303 49.1972L49.0667 45.8104V57.6ZM46.9333 33.8512V23.1688L42.6667 21.7467V29.8667H40.5333V26.5036L36.2667 25.7925V27.7333H34.1333V21.3333H29.8667V25.6C29.8667 25.8829 29.7543 26.1542 29.5542 26.3542C29.3542 26.5543 29.0829 26.6667 28.8 26.6667H24.5333C24.2504 26.6667 23.9791 26.5543 23.7791 26.3542C23.579 26.1542 23.4667 25.8829 23.4667 25.6V17.0667H19.2V24.5333H17.0667V22.4H13.8667C13.5838 22.4 13.3125 22.2876 13.1124 22.0876C12.9124 21.8875 12.8 21.6162 12.8 21.3333V17.8355L8.53333 16.4133V24.7564L46.9333 33.8512Z" fill="#27AE60"/>
</svg>
