<svg width="64" height="64" viewBox="0 0 64 64" fill="none" xmlns="http://www.w3.org/2000/svg">
<path d="M17.5488 19.5988C17.5488 20.1684 17.0866 20.6302 16.5165 20.6302C15.9465 20.6302 15.4843 20.1684 15.4843 19.5988C15.4843 19.0292 15.9465 18.5673 16.5165 18.5673C17.0866 18.5673 17.5488 19.0292 17.5488 19.5988Z" fill="#219653"/>
<path d="M27.8705 19.5988C27.8705 20.1684 27.4083 20.6302 26.8383 20.6302C26.2682 20.6302 25.806 20.1684 25.806 19.5988C25.806 19.0292 26.2682 18.5673 26.8383 18.5673C27.4083 18.5673 27.8705 19.0292 27.8705 19.5988Z" fill="#219653"/>
<path d="M21.6772 27.851C20.5386 27.851 19.6127 26.9258 19.6127 25.7881L17.5482 25.7881C17.5482 28.0635 19.4 29.9139 21.6772 29.9139C23.9544 29.9139 25.8062 28.0635 25.8062 25.7881L23.7417 25.7881C23.7417 26.9258 22.8158 27.851 21.6772 27.851Z" fill="#219653"/>
<path d="M41.5677 40.5551L36.7089 45.4102L41.5677 50.2654L43.0274 48.8068L39.6282 45.4102L43.0274 42.0137L41.5677 40.5551Z" fill="#219653"/>
<path d="M47.7611 42.0137L51.1603 45.4102L47.7611 48.8068L49.2208 50.2654L54.0797 45.4102L49.2208 40.5551L47.7611 42.0137Z" fill="#219653"/>
<path d="M43.3445 51.4322L45.4055 39.0541L47.4418 39.3926L45.3813 51.7706L43.3445 51.4322Z" fill="#219653"/>
<path d="M45.395 33.0321C38.5643 33.0321 33.0079 38.5848 33.0079 45.4096C33.0079 52.235 38.5643 57.7872 45.395 57.7872C52.2256 57.7872 57.7821 52.235 57.7821 45.4096C57.7821 38.5848 52.2256 33.0321 45.395 33.0321ZM45.395 55.7243C39.7029 55.7243 35.0724 51.0973 35.0724 45.4096C35.0724 39.722 39.7029 35.095 45.395 35.095C51.087 35.095 55.7176 39.722 55.7176 45.4096C55.7176 51.0973 51.086 55.7243 45.395 55.7243Z" fill="#219653"/>
<path d="M61.497 41.7742C61.0832 39.9258 60.3644 38.1888 59.3558 36.5962L60.5378 34.2488L56.5635 30.2775L54.2142 31.4586C52.6205 30.4498 50.8821 29.7331 49.0323 29.3191L48.2046 26.818L42.5837 26.818L41.7571 29.3191C40.8785 29.5165 40.0277 29.7855 39.2031 30.1179C37.8891 28.3642 37.1613 26.2217 37.1613 24.0248L37.1613 15.4719C37.1613 6.94071 30.2152 -3.24726e-07 21.6774 -2.3297e-07C13.1396 -1.41213e-07 6.19355 6.94071 6.19355 15.4719L6.19355 24.9293C6.19355 28.2786 4.40877 31.4309 1.53276 33.1544L0.552419 33.7421L1.23891 34.6572C1.33871 34.7902 3.09879 37.0646 6.53024 38.3404L4.94052 38.8707C1.98639 39.8538 -6.07185e-07 42.6067 -6.51534e-07 45.7187L-7.93761e-07 55.6989L30.69 55.6989L30.2525 56.5697L34.2268 60.5405L36.5761 59.3594C38.1699 60.3682 39.9083 61.0854 41.7581 61.4989L42.5847 64L48.2056 64L49.0333 61.4989C50.8831 61.0854 52.6215 60.3672 54.2152 59.3594L56.5645 60.5405L60.5388 56.5697L59.3569 54.2218C60.3664 52.6292 61.0842 50.8922 61.498 49.0438L64 48.2178L64 42.6012L61.497 41.7742ZM37.312 31.0355C37.0655 31.175 36.8155 31.307 36.5751 31.4586L34.2258 30.2775L30.2515 34.2488L31.4012 36.5333L27.871 35.3573L27.871 33.2203C30.1522 31.73 31.8599 29.442 32.6079 26.7561C33.5917 26.6387 34.4839 26.2509 35.2187 25.6586C35.4808 27.5886 36.193 29.4359 37.312 31.0355ZM26.7893 42.6012L26.7893 44.2023L23.2031 41.1925L27.1174 37.2812L30.4632 38.3953C29.9561 39.4731 29.5554 40.5982 29.2923 41.7742L26.7893 42.6012ZM21.6774 39.7999L17.5484 35.6741L17.5484 34.2815C18.8306 34.7841 20.2198 35.0697 21.6774 35.0697C23.1351 35.0697 24.5247 34.7841 25.8064 34.2815L25.8064 35.6741L21.6774 39.7999ZM20.1507 41.3245L16.7031 44.7694L12.7465 38.4436L16.2364 37.2812L20.2177 41.2585L20.1507 41.3245ZM21.6774 33.0068C16.5544 33.0068 12.3871 28.8427 12.3871 23.7236L12.3871 16.5034L30.9677 16.5034L30.9677 23.7236C30.9677 28.8427 26.8004 33.0068 21.6774 33.0068ZM32.9889 24.5788C33.0106 24.2953 33.0323 24.0122 33.0323 23.7236L33.0323 18.7562C34.2308 19.1833 35.0968 20.318 35.0968 21.6607C35.0968 23.019 34.2102 24.1638 32.9889 24.5788ZM21.6774 2.06292C29.0766 2.06292 35.0968 8.07844 35.0968 15.4719L35.0968 17.5615C34.4939 17.1057 33.7994 16.7643 33.0323 16.6087L33.0323 14.4405L10.3226 14.4405L10.3226 16.6076C9.55544 16.7643 8.86089 17.1047 8.25806 17.5605L8.25806 15.4719C8.25806 8.07844 14.2782 2.06292 21.6774 2.06292ZM10.3226 18.7562L10.3226 23.7236C10.3226 24.0122 10.3443 24.2953 10.3659 24.5788C9.14466 24.1638 8.25806 23.019 8.25806 21.6607C8.25806 20.318 9.12399 19.1833 10.3226 18.7562ZM3.63861 34.2165C6.30494 32.1909 7.97732 29.0718 8.21068 25.7216C8.93095 26.2796 9.79637 26.6437 10.747 26.7571C11.4945 29.444 13.2026 31.7311 15.4839 33.2213L15.4839 35.3583L10.3296 37.0757C6.93901 36.7952 4.71018 35.2112 3.63861 34.2165ZM2.06452 45.7187C2.06452 43.4957 3.48286 41.5289 5.59375 40.8264L10.5837 39.1648C10.6447 39.1679 10.7067 39.1699 10.7676 39.1719L16.3281 48.0622L21.7374 42.6571L26.7893 46.8973L26.7893 48.2188L29.2923 49.0448C29.6568 50.6716 30.2712 52.2052 31.0968 53.637L9.72933 53.637C8.78377 52.6625 8.25806 51.3852 8.25806 50.0259C8.25806 48.6384 8.79788 47.3349 9.78074 46.3528L10.3226 45.8114L10.3226 43.3214L8.25806 43.3214L8.25806 44.9582C6.92641 46.3211 6.19355 48.1166 6.19355 50.0259C6.19355 51.3142 6.53427 52.5487 7.16079 53.636L2.06452 53.636L2.06452 45.7187ZM61.9355 46.727L59.7026 47.4649L59.5912 48.0642C59.2218 50.0566 58.4546 51.9085 57.315 53.569L56.9693 54.0712L58.0232 56.1643L56.1578 58.0278L54.0635 56.9747L53.561 57.3202C51.8987 58.4589 50.0459 59.2255 48.0519 59.5946L47.4521 59.7059L46.7127 61.9371L44.0756 61.9371L43.3372 59.7059L42.7374 59.5946C40.7434 59.2255 38.8906 58.4589 37.2283 57.3202L36.7258 56.9747L34.6315 58.0278L32.7661 56.1643L33.8201 54.0712L33.4743 53.569C32.3347 51.9085 31.5675 50.0566 31.1981 48.0642L31.0867 47.4649L28.8538 46.727L28.8538 44.092L31.0867 43.3531L31.1981 42.7543C31.5675 40.7614 32.3347 38.91 33.4743 37.249L33.8201 36.7468L32.7661 34.6542L34.6315 32.7902L36.7258 33.8433L37.2283 33.4978C38.8906 32.3591 40.7434 31.5926 42.7374 31.2234L43.3372 31.1121L44.0756 28.8809L46.7127 28.8809L47.4521 31.1121L48.0519 31.2234C50.0459 31.5926 51.8987 32.3591 53.561 33.4978L54.0635 33.8433L56.1578 32.7902L58.0232 34.6542L56.9693 36.7468L57.315 37.249C58.4546 38.91 59.2218 40.7614 59.5912 42.7543L59.7026 43.3531L61.9355 44.092L61.9355 46.727Z" fill="#219653"/>
</svg>
