<svg width="49" height="462" viewBox="0 0 49 462" fill="none" xmlns="http://www.w3.org/2000/svg">
<g clip-path="url(#clip0)">
<path d="M21.5425 182.228C-1.20247 289.792 -7.26172 348.851 12.0863 461.5L23.4322 461.5C23.4322 461.5 23.4322 461.5 23.4322 461.5C5.17667 348.974 10.8938 289.979 32.3545 182.531C49.8097 95.137 31.6837 47.299 20.7852 18.535C18.2843 11.935 16.164 6.339 14.9415 1.5C14.8994 1.333 14.8577 1.167 14.8165 0.999999C10.9637 1 7.05405 1 3.08747 1C4.38308 5.844 6.63028 11.446 9.28084 18.054C20.8315 46.849 40.0422 94.739 21.5425 182.228Z" fill="white"/>
</g>
<defs>
<clipPath id="clip0">
<rect x="0.500008" y="461.5" width="461" height="48" transform="rotate(-90 0.500008 461.5)" fill="white"/>
</clipPath>
</defs>
</svg>
