<svg width="1920" height="168" viewBox="0 0 1920 168" fill="none" xmlns="http://www.w3.org/2000/svg">
<g clip-path="url(#clip0)">
<path fill-rule="evenodd" clip-rule="evenodd" d="M0 168H1920V110.802C1920 110.802 1548.22 -10.4919 1348.74 0.73375C952.166 23.0508 908.176 118.036 558.979 132.574C238.062 145.934 0 35.1541 0 35.1541V168Z" fill="#F8F8F8"/>
<path style="mix-blend-mode:multiply" d="M1920 110.802V136.658C1920 136.658 1548.22 15.3632 1348.74 26.5889C1147.4 37.9192 1036.94 67.9804 931.282 96.7352C828.829 124.618 730.889 151.272 558.979 158.429C238.062 171.79 0 61.0092 0 61.0092V35.1541C0 35.1541 238.062 145.934 558.979 132.574C733.5 125.309 828.829 98.7627 931.282 70.8801C1036.94 42.1253 1147.4 12.0641 1348.74 0.73375C1548.22 -10.4919 1920 110.802 1920 110.802Z" fill="url(#paint0_linear)"/>
</g>
<defs>
<linearGradient id="paint0_linear" x1="6.31447e-06" y1="136.007" x2="1920" y2="136.007" gradientUnits="userSpaceOnUse">
<stop stop-color="#FFDA79"/>
<stop offset="1" stop-color="#F2994A"/>
</linearGradient>
<clipPath id="clip0">
<rect width="1920" height="168" fill="white"/>
</clipPath>
</defs>
</svg>
