<svg width="3284" height="694" viewBox="0 0 3284 694" fill="none" xmlns="http://www.w3.org/2000/svg">
<path d="M3282.68 0L3044.11 0V694H3105.25C3104.48 691.222 3103.71 688.449 3102.92 685.682C3066.74 559.279 3094.04 418.567 3176.2 307.947C3223.91 243.702 3263.04 172.986 3274.99 111.421C3282.81 71.0844 3285.15 33.9318 3282.68 0Z" fill="white"/>
<path d="M3253.68 0L0 0V694H3076.25C3075.48 691.222 3074.71 688.449 3073.92 685.682C3037.74 559.279 3065.04 418.567 3147.2 307.947C3194.91 243.702 3234.04 172.986 3245.99 111.421C3253.81 71.0844 3256.15 33.9318 3253.68 0Z" fill="url(#paint0_linear)"/>
<defs>
<linearGradient id="paint0_linear" x1="1.07038e-05" y1="591.607" x2="3254.62" y2="591.607" gradientUnits="userSpaceOnUse">
<stop stop-color="#219653"/>
<stop offset="1" stop-color="#176347"/>
</linearGradient>
</defs>
</svg>
